testPre
0, A[x < 100 AND y = false].BUFFER, 1
0, C.BUFFER, 0
0, B.BUFFER, 0
0, D.BUFFER, 0
1, B.FORWARD, 2
2, A[x < 100 AND y = false].FORWARD, 0
2, C.FORWARD, 3
2, D.FORWARD, 2
3, D.FORWARD, 0
3, A[x < 100 AND y = false].FORWARD, 3