AutomatonA1
0, Press[On = false].DISCARD, 0 | 
0, Press[On = true].FORWARD, 1 | release1 (Press)
1, Press[On = false].FORWARD, 0 | release2
1, OK1[OnBelt = true].FORWARD, 2 | 
2, Press[On = false].BUFFER, 2 | 
2, OK2[OffBelt = true].FORWARD, 1 | release1 (Press)
