testCode
0, D.FORWARD, 0
0, B[x >= 5].DISCARD, 0
0, A[x < 5 AND y = true].DISCARD, 1
0, B[x < 5 AND y = true].FORWARD, 1
0, C[y != true].REPLACE.D, 1
1, B[x < 10].REPLACE.D[x = 20 AND z = false], 2
2, C.FORWARD, 0